$date
  Fri Apr 22 10:56:56 2022
$end
$version
  GHDL v0
$end
$timescale
  1 fs
$end
$scope module standard $end
$upscope $end
$scope module std_logic_1164 $end
$upscope $end
$scope module numeric_std $end
$upscope $end
$scope module counter_binary $end
$var reg 1 ! counter_binary_clk $end
$var reg 4 " counter_binary_shift[3:0] $end
$var reg 16 # counter_binary_out[15:0] $end
$var reg 16 $ temp[15:0] $end
$var reg 16 % temp1[15:0] $end
$var reg 16 & zeros[15:0] $end
$var reg 16 ' ones[15:0] $end
$var reg 1 ( tmp $end
$upscope $end
$enddefinitions $end
#0
U!
bUUUU "
b0000000000000000 #
b000000000000UUUU $
b0000000000000000 %
b0000000000000000 &
b1111111111111111 '
0(
