$date
  Sat May 21 23:36:53 2022
$end
$version
  GHDL v0
$end
$timescale
  1 fs
$end
$scope module standard $end
$upscope $end
$scope module std_logic_1164 $end
$upscope $end
$scope module std_logic_arith $end
$upscope $end
$scope module std_logic_unsigned $end
$upscope $end
$scope module top_level $end
$var reg 1 ! top_clk $end
$var reg 1 " top_reset $end
$var reg 6 # top_mode[5:0] $end
$var reg 4 $ top_leds[3:0] $end
$var reg 1 % sig_clk $end
$scope module f0 $end
$var reg 1 & frequency_clk50mhz $end
$var reg 1 ' frequency_clk $end
$var integer 32 ( count $end
$var reg 1 ) clk_state $end
$upscope $end
$scope module g0 $end
$var reg 1 * glass_clk $end
$var reg 1 + glass_reset $end
$var reg 1 , glass_sensor_st_0 $end
$var reg 1 - glass_sensor_st_1 $end
$var reg 1 . glass_sensor_st_2 $end
$var reg 1 / glass_sensor_sup $end
$var reg 1 0 glass_sensor_sdw $end
$var reg 1 1 glass_sensor_fg $end
$var reg 4 2 glass_leds[3:0] $end
$comment cur_state is not handled $end
$comment next_state is not handled $end
$upscope $end
$upscope $end
$enddefinitions $end
#0
U!
U"
bUUUUUU #
b0000 $
0%
U&
0'
b0 (
0)
0*
U+
U,
U-
U.
U/
U0
U1
b0000 2
