$date
  Thu Mar 31 05:51:27 2022
$end
$version
  GHDL v0
$end
$timescale
  1 fs
$end
$scope module standard $end
$upscope $end
$scope module std_logic_1164 $end
$upscope $end
$scope module numeric_std $end
$upscope $end
$scope module std_logic_arith $end
$upscope $end
$scope module std_logic_unsigned $end
$upscope $end
$scope module top_level $end
$var reg 1 ! top_level_clk $end
$var reg 1 " top_level_reset $end
$var reg 1 # top_level_mode $end
$var reg 1 $ top_level_stop $end
$var reg 1 % top_level_pulse $end
$var reg 7 & top_level_out_7seg[6:0] $end
$var reg 10 ' top_level_out_led[9:0] $end
$var reg 1 ( s0 $end
$var reg 4 ) s1[3:0] $end
$scope module u0 $end
$var reg 1 * frequency_clk50mhz $end
$var reg 1 + frequency_clk $end
$var integer 32 , count $end
$var reg 1 - clk_state $end
$upscope $end
$scope module u1 $end
$var reg 1 . counter_clk $end
$var reg 1 / counter_reset $end
$var reg 1 0 counter_mode $end
$var reg 1 1 counter_stop $end
$var reg 1 2 counter_pulse $end
$var reg 4 3 counter_out[3:0] $end
$var reg 4 4 r_next[3:0] $end
$var reg 4 5 r_reg[3:0] $end
$upscope $end
$scope module u2 $end
$var reg 4 6 dec_7seg_in[3:0] $end
$var reg 7 7 dec_7seg_out[6:0] $end
$upscope $end
$scope module u3 $end
$var reg 1 8 counter_binary_clk $end
$var reg 1 9 counter_binary_reset $end
$var reg 1 : counter_binary_mode $end
$var reg 1 ; counter_binary_stop $end
$var reg 10 < counter_binary_out[9:0] $end
$var reg 10 = temp[9:0] $end
$upscope $end
$upscope $end
$enddefinitions $end
#0
U!
U"
U#
U$
U%
b0111111 &
b0000000000 '
0(
b0000 )
U*
0+
b0 ,
0-
0.
U/
U0
U1
U2
b0000 3
b0000 4
b0000 5
b0000 6
b0111111 7
08
U9
U:
U;
b0000000000 <
b0000000000 =
